Tutorial 3
…
We have \(50 \times 3 \times 10 = 1500\) rows, because of \(50\) lambda values, \(3\) metrics and \(10\) folds.

cv_lasso_result <- cv_glmnet_mod(hitters_train, y_name = "log_salary", alpha = 1, v = 10)
cv_lasso_result

# A tibble: 1,500 × 5
     lambda .metric .estimator .estimate fold_id
      <dbl> <chr>   <chr>          <dbl> <chr>  
 1 1   e-10 mae     standard       0.247 Fold01 
 2 1.60e-10 mae     standard       0.247 Fold01 
 3 2.56e-10 mae     standard       0.247 Fold01 
 4 4.09e-10 mae     standard       0.247 Fold01 
 5 6.55e-10 mae     standard       0.247 Fold01 
 6 1.05e- 9 mae     standard       0.247 Fold01 
 7 1.68e- 9 mae     standard       0.247 Fold01 
 8 2.68e- 9 mae     standard       0.247 Fold01 
 9 4.29e- 9 mae     standard       0.247 Fold01 
10 6.87e- 9 mae     standard       0.247 Fold01 
# … with 1,490 more rows
…
g.

ridge_mod <- glmnet(x = hitters_train %>%
                      select(-log_salary, -name),
                    y = hitters_train$log_salary,
                    alpha = 0,
                    lambda = 10 ^ seq(-10, 0, length.out = 50))

Apply the same function for ridge regression by setting alpha = 0.

cv_ridge_result <- cv_glmnet_mod(hitters_train, y_name = "log_salary", alpha = 0, v = 10)
cv_ridge_result

# A tibble: 1,500 × 5
     lambda .metric .estimator .estimate fold_id
      <dbl> <chr>   <chr>          <dbl> <chr>  
 1 1   e-10 mae     standard       0.279 Fold01 
 2 1.60e-10 mae     standard       0.279 Fold01 
 3 2.56e-10 mae     standard       0.279 Fold01 
 4 4.09e-10 mae     standard       0.279 Fold01 
 5 6.55e-10 mae     standard       0.279 Fold01 
 6 1.05e- 9 mae     standard       0.279 Fold01 
 7 1.68e- 9 mae     standard       0.279 Fold01 
 8 2.68e- 9 mae     standard       0.279 Fold01 
 9 4.29e- 9 mae     standard       0.279 Fold01 
10 6.87e- 9 mae     standard       0.279 Fold01 
# … with 1,490 more rows
…
